  _    _       _                 _ _____  
 | |  | |     | |               | |  __ \ 
 | |  | |_ __ | | ___   __ _  __| | |__) |
 | |  | | '_ \| |/ _ \ / _` |/ _` |  _  / 
 | |__| | |_) | | (_) | (_| | (_| | | \ \ 
  \____/| .__/|_|\___/ \__,_|\__,_|_|  \_\
        | |                               
        |_|                               